{
    "rules": {
        "class-name": true,
        "comment-format": [
            true,
            "check-space"
        ],
        "curly": true,
        "eofline": true,
        "forin": false,
        "indent": [
            true,
            "spaces"
        ],
        "label-position": true,
        "max-line-length": {
            "options": 140,
            "severity": "warn"
        },
        "member-access": false,
        "member-ordering": [
            true
        ],
        "no-arg": true,
        "no-bitwise": true,
        "no-console": [
            true,
            "debug",
            "info",
            "time",
            "timeEnd",
            "trace"
        ],
        "no-construct": true,
        "no-debugger": true,
        "no-duplicate-variable": true,
        "no-empty": true,
        "no-eval": true,
        "no-inferrable-types": true,
        "no-shadowed-variable": true,
        "no-switch-case-fall-through": false,
        "no-trailing-whitespace": true,
        "no-unused-variable": true,
        "no-unused-expression": true,
        "no-use-before-declare": true,
        "no-var-keyword": true,
        "object-literal-sort-keys": false,
        "one-line": [
            true,
            "check-open-brace",
            "check-catch",
            "check-else",
            "check-whitespace"
        ],
        "quotemark": [
            true,
            "double",
            "avoid-escape"
        ],
        "radix": true,
        "semicolon": [
            true
        ],
        "trailing-comma": false,
        "triple-equals": [
            true,
            "allow-null-check"
        ],
        "typedef-whitespace": [
            true,
            {
                "call-signature": "nospace",
                "index-signature": "nospace",
                "parameter": "nospace",
                "property-declaration": "nospace",
                "variable-declaration": "nospace"
            }
        ],
        "variable-name": false,
        "whitespace": [
            true,
            "check-branch",
            "check-decl",
            "check-operator",
            "check-separator",
            "check-type"
        ]
    }
}